PHP Warning:  PHP Startup: Unable to load dynamic library '/usr/lib/php/20151012/php_mbstring.dll' - /usr/lib/php/20151012/php_mbstring.dll: cannot open shared object file: No such file or directory in Unknown on line 0
PHP Warning:  PHP Startup: Unable to load dynamic library '/usr/lib/php/20151012/php_exif.dll' - /usr/lib/php/20151012/php_exif.dll: cannot open shared object file: No such file or directory in Unknown on line 0
PHP Warning:  PHP Startup: Unable to load dynamic library '/usr/lib/php/20151012/php_openssl.dll' - /usr/lib/php/20151012/php_openssl.dll: cannot open shared object file: No such file or directory in Unknown on line 0
